[
  {
    "type": "Header",
    "flags": "",
    "version": 1.3,
    "file_type": "Esp",
    "author": "",
    "description": "",
    "num_objects": 37,
    "masters": [
      [
        "Morrowind.esm",
        79837557
      ],
      [
        "Tribunal.esm",
        4565686
      ],
      [
        "Bloodmoon.esm",
        9631798
      ],
      [
        "Tamriel_Data.esm",
        11610744
      ],
      [
        "OAAB_Data.esm",
        1597716
      ]
    ]
  },
  {
    "type": "Script",
    "flags": "",
    "id": "gg_mncha_DoorArcanorum",
    "header": {
      "num_shorts": 0,
      "num_longs": 0,
      "num_floats": 0,
      "bytecode_length": 98,
      "variables_length": 0
    },
    "variables": "AAAAAA==",
    "bytecode": "YgAAAAYBBAkgWNwQID09IDAGAQIdIFjNECBkD01HX2dnX25jaGFBcmNhbiAhPSAxMDDbECQBCQEHAQQGAQIdIFjNECBkD01HX2dnX25jaGFBcmNhbiA9PSAxMDDaECQBCQEJAQEB",
    "text": "Begin gg_mncha_DoorArcanorum\r\n\r\nif ( GetDisabled == 0 )\r\n\tif ( GetJournalIndex MG_gg_nchaArcan != 100 )\r\n\t\tdisable\r\n\t\treturn\r\n\tendif\r\nelse\r\n\tif ( GetJournalIndex MG_gg_nchaArcan == 100 )\r\n\t\tenable\r\n\t\treturn\r\n\tendif\r\nendif\r\n\r\nEnd"
  },
  {
    "type": "Script",
    "flags": "",
    "id": "gg_mncha_DoorDiningFine",
    "header": {
      "num_shorts": 0,
      "num_longs": 0,
      "num_floats": 0,
      "bytecode_length": 100,
      "variables_length": 0
    },
    "variables": "AAAAAA==",
    "bytecode": "ZAAAAAYBBAkgWNwQID09IDAGAQIeIFjNECBkEE1HX2dnX25jaGFEaW5pbmcgIT0gMTEw2xAkAQkBBwEEBgECHiBYzRAgZBBNR19nZ19uY2hhRGluaW5nID09IDExMNoQJAEJAQkBAQE=",
    "text": "Begin gg_mncha_DoorDiningFine\r\n\r\nif ( GetDisabled == 0 )\r\n\tif ( GetJournalIndex MG_gg_nchaDining != 110 )\r\n\t\tdisable\r\n\t\treturn\r\n\tendif\r\nelse\r\n\tif ( GetJournalIndex MG_gg_nchaDining == 110 )\r\n\t\tenable\r\n\t\treturn\r\n\tendif\r\nendif\r\n\r\nEnd\r\n"
  },
  {
    "type": "Script",
    "flags": "",
    "id": "gg_mncha_DoorDiningTea",
    "header": {
      "num_shorts": 0,
      "num_longs": 0,
      "num_floats": 0,
      "bytecode_length": 100,
      "variables_length": 0
    },
    "variables": "AAAAAA==",
    "bytecode": "ZAAAAAYBBAkgWNwQID09IDAGAQIeIFjNECBkEE1HX2dnX25jaGFEaW5pbmcgIT0gMTAw2xAkAQkBBwEEBgECHiBYzRAgZBBNR19nZ19uY2hhRGluaW5nID09IDEwMNoQJAEJAQkBAQE=",
    "text": "Begin gg_mncha_DoorDiningTea\r\n\r\nif ( GetDisabled == 0 )\r\n\tif ( GetJournalIndex MG_gg_nchaDining != 100 )\r\n\t\tdisable\r\n\t\treturn\r\n\tendif\r\nelse\r\n\tif ( GetJournalIndex MG_gg_nchaDining == 100 )\r\n\t\tenable\r\n\t\treturn\r\n\tendif\r\nendif\r\n\r\nEnd"
  },
  {
    "type": "Script",
    "flags": "",
    "id": "gg_mncha_DoorFactCult",
    "header": {
      "num_shorts": 0,
      "num_longs": 0,
      "num_floats": 0,
      "bytecode_length": 102,
      "variables_length": 0
    },
    "variables": "AAAAAA==",
    "bytecode": "ZgAAAAYBBAkgWNwQID09IDAGAQIfIFjNECBkEU1HX2dnX25jaGFGYWN0aW9uICE9IDIwMNsQJAEJAQcBBAYBAh8gWM0QIGQRTUdfZ2dfbmNoYUZhY3Rpb24gPT0gMjAw2hAkAQkBCQEBAQ==",
    "text": "Begin gg_mncha_DoorFactCult\r\n\r\nif ( GetDisabled == 0 )\r\n\tif ( GetJournalIndex MG_gg_nchaFaction != 200 )\r\n\t\tdisable\r\n\t\treturn\r\n\tendif\r\nelse\r\n\tif ( GetJournalIndex MG_gg_nchaFaction == 200 )\r\n\t\tenable\r\n\t\treturn\r\n\tendif\r\nendif\r\n\r\nEnd\r\n\r\n"
  },
  {
    "type": "Script",
    "flags": "",
    "id": "gg_mncha_DoorFactLamp",
    "header": {
      "num_shorts": 0,
      "num_longs": 0,
      "num_floats": 0,
      "bytecode_length": 102,
      "variables_length": 0
    },
    "variables": "AAAAAA==",
    "bytecode": "ZgAAAAYBBAkgWNwQID09IDAGAQIfIFjNECBkEU1HX2dnX25jaGFGYWN0aW9uICE9IDMwMNsQJAEJAQcBBAYBAh8gWM0QIGQRTUdfZ2dfbmNoYUZhY3Rpb24gPT0gMzAw2hAkAQkBCQEBAQ==",
    "text": "Begin gg_mncha_DoorFactLamp\r\n\r\nif ( GetDisabled == 0 )\r\n\tif ( GetJournalIndex MG_gg_nchaFaction != 300 )\r\n\t\tdisable\r\n\t\treturn\r\n\tendif\r\nelse\r\n\tif ( GetJournalIndex MG_gg_nchaFaction == 300 )\r\n\t\tenable\r\n\t\treturn\r\n\tendif\r\nendif\r\n\r\nEnd\r\n\r\n"
  },
  {
    "type": "Script",
    "flags": "",
    "id": "gg_mncha_DoorFactTemple",
    "header": {
      "num_shorts": 0,
      "num_longs": 0,
      "num_floats": 0,
      "bytecode_length": 102,
      "variables_length": 0
    },
    "variables": "AAAAAA==",
    "bytecode": "ZgAAAAYBBAkgWNwQID09IDAGAQIfIFjNECBkEU1HX2dnX25jaGFGYWN0aW9uICE9IDEwMNsQJAEJAQcBBAYBAh8gWM0QIGQRTUdfZ2dfbmNoYUZhY3Rpb24gPT0gMTAw2hAkAQkBCQEBAQ==",
    "text": "Begin gg_mncha_DoorFactTemple\r\n\r\nif ( GetDisabled == 0 )\r\n\tif ( GetJournalIndex MG_gg_nchaFaction != 100 )\r\n\t\tdisable\r\n\t\treturn\r\n\tendif\r\nelse\r\n\tif ( GetJournalIndex MG_gg_nchaFaction == 100 )\r\n\t\tenable\r\n\t\treturn\r\n\tendif\r\nendif\r\n\r\nEnd\r\n"
  },
  {
    "type": "Script",
    "flags": "",
    "id": "gg_mncha_DoorFactThief",
    "header": {
      "num_shorts": 0,
      "num_longs": 0,
      "num_floats": 0,
      "bytecode_length": 102,
      "variables_length": 0
    },
    "variables": "AAAAAA==",
    "bytecode": "ZgAAAAYBBAkgWNwQID09IDAGAQIfIFjNECBkEU1HX2dnX25jaGFGYWN0aW9uICE9IDQwMNsQJAEJAQcBBAYBAh8gWM0QIGQRTUdfZ2dfbmNoYUZhY3Rpb24gPT0gNDAw2hAkAQkBCQEBAQ==",
    "text": "Begin gg_mncha_DoorFactThief\r\n\r\nif ( GetDisabled == 0 )\r\n\tif ( GetJournalIndex MG_gg_nchaFaction != 400 )\r\n\t\tdisable\r\n\t\treturn\r\n\tendif\r\nelse\r\n\tif ( GetJournalIndex MG_gg_nchaFaction == 400 )\r\n\t\tenable\r\n\t\treturn\r\n\tendif\r\nendif\r\n\r\nEnd\r\n\r\n"
  },
  {
    "type": "Script",
    "flags": "",
    "id": "gg_mncha_DoorFactTong",
    "header": {
      "num_shorts": 0,
      "num_longs": 0,
      "num_floats": 0,
      "bytecode_length": 102,
      "variables_length": 0
    },
    "variables": "AAAAAA==",
    "bytecode": "ZgAAAAYBBAkgWNwQID09IDAGAQIfIFjNECBkEU1HX2dnX25jaGFGYWN0aW9uICE9IDUwMNsQJAEJAQcBBAYBAh8gWM0QIGQRTUdfZ2dfbmNoYUZhY3Rpb24gPT0gNTAw2hAkAQkBCQEBAQ==",
    "text": "Begin gg_mncha_DoorFactTong\r\n\r\nif ( GetDisabled == 0 )\r\n\tif ( GetJournalIndex MG_gg_nchaFaction != 500 )\r\n\t\tdisable\r\n\t\treturn\r\n\tendif\r\nelse\r\n\tif ( GetJournalIndex MG_gg_nchaFaction == 500 )\r\n\t\tenable\r\n\t\treturn\r\n\tendif\r\nendif\r\n\r\nEnd\r\n\r\n"
  },
  {
    "type": "Script",
    "flags": "",
    "id": "gg_mncha_DoorStudyConj",
    "header": {
      "num_shorts": 0,
      "num_longs": 0,
      "num_floats": 0,
      "bytecode_length": 100,
      "variables_length": 0
    },
    "variables": "AAAAAA==",
    "bytecode": "ZAAAAAYBBAkgWNwQID09IDAGAQIeIFjNECBkEE1HX2dnX25jaGFfc3R1ZHkgIT0gMjAw2xAkAQkBBwEEBgECHiBYzRAgZBBNR19nZ19uY2hhX3N0dWR5ID09IDIwMNoQJAEJAQkBAQE=",
    "text": "Begin gg_mncha_DoorStudyConj\r\n\r\nif ( GetDisabled == 0 )\r\n\tif ( GetJournalIndex MG_gg_ncha_study != 200 )\r\n\t\tdisable\r\n\t\treturn\r\n\tendif\r\nelse\r\n\tif ( GetJournalIndex MG_gg_ncha_study == 200 )\r\n\t\tenable\r\n\t\treturn\r\n\tendif\r\nendif\r\n\r\nEnd"
  },
  {
    "type": "Script",
    "flags": "",
    "id": "gg_mncha_DoorStudyEnch",
    "header": {
      "num_shorts": 0,
      "num_longs": 0,
      "num_floats": 0,
      "bytecode_length": 100,
      "variables_length": 0
    },
    "variables": "AAAAAA==",
    "bytecode": "ZAAAAAYBBAkgWNwQID09IDAGAQIeIFjNECBkEE1HX2dnX25jaGFfc3R1ZHkgIT0gNDAw2xAkAQkBBwEEBgECHiBYzRAgZBBNR19nZ19uY2hhX3N0dWR5ID09IDQwMNoQJAEJAQkBAQE=",
    "text": "Begin gg_mncha_DoorStudyEnch\r\n\r\nif ( GetDisabled == 0 )\r\n\tif ( GetJournalIndex MG_gg_ncha_study != 400 )\r\n\t\tdisable\r\n\t\treturn\r\n\tendif\r\nelse\r\n\tif ( GetJournalIndex MG_gg_ncha_study == 400 )\r\n\t\tenable\r\n\t\treturn\r\n\tendif\r\nendif\r\n\r\nEnd"
  },
  {
    "type": "Script",
    "flags": "",
    "id": "gg_mncha_DoorStudyNecro",
    "header": {
      "num_shorts": 0,
      "num_longs": 0,
      "num_floats": 0,
      "bytecode_length": 100,
      "variables_length": 0
    },
    "variables": "AAAAAA==",
    "bytecode": "ZAAAAAYBBAkgWNwQID09IDAGAQIeIFjNECBkEE1HX2dnX25jaGFfc3R1ZHkgIT0gMTAw2xAkAQkBBwEEBgECHiBYzRAgZBBNR19nZ19uY2hhX3N0dWR5ID09IDEwMNoQJAEJAQkBAQE=",
    "text": "Begin gg_mncha_DoorStudyNecro\r\n\r\nif ( GetDisabled == 0 )\r\n\tif ( GetJournalIndex MG_gg_ncha_study != 100 )\r\n\t\tdisable\r\n\t\treturn\r\n\tendif\r\nelse\r\n\tif ( GetJournalIndex MG_gg_ncha_study == 100 )\r\n\t\tenable\r\n\t\treturn\r\n\tendif\r\nendif\r\n\r\nEnd"
  },
  {
    "type": "Script",
    "flags": "",
    "id": "gg_mncha_DoorStudyRest",
    "header": {
      "num_shorts": 0,
      "num_longs": 0,
      "num_floats": 0,
      "bytecode_length": 100,
      "variables_length": 0
    },
    "variables": "AAAAAA==",
    "bytecode": "ZAAAAAYBBAkgWNwQID09IDAGAQIeIFjNECBkEE1HX2dnX25jaGFfc3R1ZHkgIT0gMzAw2xAkAQkBBwEEBgECHiBYzRAgZBBNR19nZ19uY2hhX3N0dWR5ID09IDMwMNoQJAEJAQkBAQE=",
    "text": "Begin gg_mncha_DoorStudyRest\r\n\r\nif ( GetDisabled == 0 )\r\n\tif ( GetJournalIndex MG_gg_ncha_study != 300 )\r\n\t\tdisable\r\n\t\treturn\r\n\tendif\r\nelse\r\n\tif ( GetJournalIndex MG_gg_ncha_study == 300 )\r\n\t\tenable\r\n\t\treturn\r\n\tendif\r\nendif\r\n\r\nEnd"
  },
  {
    "type": "Script",
    "flags": "",
    "id": "gg_mncha_DoorlibArc",
    "header": {
      "num_shorts": 0,
      "num_longs": 0,
      "num_floats": 0,
      "bytecode_length": 94,
      "variables_length": 0
    },
    "variables": "AAAAAA==",
    "bytecode": "XgAAAAYBBAkgWNwQID09IDAGAQIbIFjNECBkDU1HX2dnX25jaGFMaWIgIT0gMTAw2xAkAQkBBwEEBgECGyBYzRAgZA1NR19nZ19uY2hhTGliID09IDEwMNoQJAEJAQkBAQE=",
    "text": "Begin gg_mncha_DoorlibArc\r\n\r\nif ( GetDisabled == 0 )\r\n\tif ( GetJournalIndex MG_gg_nchaLib != 100 )\r\n\t\tdisable\r\n\t\treturn\r\n\tendif\r\nelse\r\n\tif ( GetJournalIndex MG_gg_nchaLib == 100 )\r\n\t\tenable\r\n\t\treturn\r\n\tendif\r\nendif\r\n\r\nEnd"
  },
  {
    "type": "Script",
    "flags": "",
    "id": "gg_mncha_DoorlibDae",
    "header": {
      "num_shorts": 0,
      "num_longs": 0,
      "num_floats": 0,
      "bytecode_length": 94,
      "variables_length": 0
    },
    "variables": "AAAAAA==",
    "bytecode": "XgAAAAYBBAkgWNwQID09IDAGAQIbIFjNECBkDU1HX2dnX25jaGFMaWIgIT0gMjAw2xAkAQkBBwEEBgECGyBYzRAgZA1NR19nZ19uY2hhTGliID09IDIwMNoQJAEJAQkBAQE=",
    "text": "Begin gg_mncha_DoorlibDae\r\n\r\nif ( GetDisabled == 0 )\r\n\tif ( GetJournalIndex MG_gg_nchaLib != 200 )\r\n\t\tdisable\r\n\t\treturn\r\n\tendif\r\nelse\r\n\tif ( GetJournalIndex MG_gg_nchaLib == 200 )\r\n\t\tenable\r\n\t\treturn\r\n\tendif\r\nendif\r\n\r\nEnd"
  },
  {
    "type": "Script",
    "flags": "",
    "id": "gg_mncha_DoorlibForb",
    "header": {
      "num_shorts": 0,
      "num_longs": 0,
      "num_floats": 0,
      "bytecode_length": 94,
      "variables_length": 0
    },
    "variables": "AAAAAA==",
    "bytecode": "XgAAAAYBBAkgWNwQID09IDAGAQIbIFjNECBkDU1HX2dnX25jaGFMaWIgIT0gMzAw2xAkAQkBBwEEBgECGyBYzRAgZA1NR19nZ19uY2hhTGliID09IDMwMNoQJAEJAQkBAQE=",
    "text": "Begin gg_mncha_DoorlibForb\r\n\r\nif ( GetDisabled == 0 )\r\n\tif ( GetJournalIndex MG_gg_nchaLib != 300 )\r\n\t\tdisable\r\n\t\treturn\r\n\tendif\r\nelse\r\n\tif ( GetJournalIndex MG_gg_nchaLib == 300 )\r\n\t\tenable\r\n\t\treturn\r\n\tendif\r\nendif\r\n\r\nEnd"
  },
  {
    "type": "Script",
    "flags": "",
    "id": "gg_ncha_alchAscAshChest",
    "header": {
      "num_shorts": 0,
      "num_longs": 0,
      "num_floats": 0,
      "bytecode_length": 100,
      "variables_length": 0
    },
    "variables": "AAAAAA==",
    "bytecode": "ZAAAAAYBBAkgWNwQID09IDAGAQIeIFjNECBkEk1HX2dnX25jaGFBbGNoUGVybSAhPSAx2xAkAQkBBwEEBgECHiBYzRAgZBJNR19nZ19uY2hhQWxjaFBlcm0gPT0gMdoQJAEJAQkBAQE=",
    "text": "Begin gg_ncha_alchAscAshChest\r\n\r\nif ( GetDisabled == 0 )\r\n\tif ( GetJournalIndex MG_gg_nchaAlchPerm != 1 )\r\n\t\tdisable\r\n\t\treturn\r\n\tendif\r\nelse\r\n\tif ( GetJournalIndex MG_gg_nchaAlchPerm == 1 )\r\n\t\tenable\r\n\t\treturn\r\n\tendif\r\nendif\r\n\r\nEnd\r\n"
  },
  {
    "type": "Script",
    "flags": "",
    "id": "gg_ncha_alchAscGreChest",
    "header": {
      "num_shorts": 0,
      "num_longs": 0,
      "num_floats": 0,
      "bytecode_length": 100,
      "variables_length": 0
    },
    "variables": "AAAAAA==",
    "bytecode": "ZAAAAAYBBAkgWNwQID09IDAGAQIeIFjNECBkEk1HX2dnX25jaGFBbGNoUGVybSAhPSAy2xAkAQkBBwEEBgECHiBYzRAgZBJNR19nZ19uY2hhQWxjaFBlcm0gPT0gMtoQJAEJAQkBAQE=",
    "text": "Begin gg_ncha_alchAscGreChest\r\n\r\nif ( GetDisabled == 0 )\r\n\tif ( GetJournalIndex MG_gg_nchaAlchPerm != 2 )\r\n\t\tdisable\r\n\t\treturn\r\n\tendif\r\nelse\r\n\tif ( GetJournalIndex MG_gg_nchaAlchPerm == 2 )\r\n\t\tenable\r\n\t\treturn\r\n\tendif\r\nendif\r\n\r\nEnd\r\n"
  },
  {
    "type": "Script",
    "flags": "",
    "id": "gg_ncha_alchAscSwaChest",
    "header": {
      "num_shorts": 0,
      "num_longs": 0,
      "num_floats": 0,
      "bytecode_length": 100,
      "variables_length": 0
    },
    "variables": "AAAAAA==",
    "bytecode": "ZAAAAAYBBAkgWNwQID09IDAGAQIeIFjNECBkEk1HX2dnX25jaGFBbGNoUGVybSAhPSAz2xAkAQkBBwEEBgECHiBYzRAgZBJNR19nZ19uY2hhQWxjaFBlcm0gPT0gM9oQJAEJAQkBAQE=",
    "text": "Begin gg_ncha_alchAscSwaChest\r\n\r\nif ( GetDisabled == 0 )\r\n\tif ( GetJournalIndex MG_gg_nchaAlchPerm != 3 )\r\n\t\tdisable\r\n\t\treturn\r\n\tendif\r\nelse\r\n\tif ( GetJournalIndex MG_gg_nchaAlchPerm == 3 )\r\n\t\tenable\r\n\t\treturn\r\n\tendif\r\nendif\r\n\r\nEnd\r\n"
  },
  {
    "type": "Script",
    "flags": "",
    "id": "gg_ncha_alchAscTunChest",
    "header": {
      "num_shorts": 0,
      "num_longs": 0,
      "num_floats": 0,
      "bytecode_length": 100,
      "variables_length": 0
    },
    "variables": "AAAAAA==",
    "bytecode": "ZAAAAAYBBAkgWNwQID09IDAGAQIeIFjNECBkEk1HX2dnX25jaGFBbGNoUGVybSAhPSA02xAkAQkBBwEEBgECHiBYzRAgZBJNR19nZ19uY2hhQWxjaFBlcm0gPT0gNNoQJAEJAQkBAQE=",
    "text": "Begin gg_ncha_alchAscTunChest\r\n\r\nif ( GetDisabled == 0 )\r\n\tif ( GetJournalIndex MG_gg_nchaAlchPerm != 4 )\r\n\t\tdisable\r\n\t\treturn\r\n\tendif\r\nelse\r\n\tif ( GetJournalIndex MG_gg_nchaAlchPerm == 4 )\r\n\t\tenable\r\n\t\treturn\r\n\tendif\r\nendif\r\n\r\nEnd\r\n"
  },
  {
    "type": "Script",
    "flags": "",
    "id": "gg_ncha_alchAshGreChest",
    "header": {
      "num_shorts": 0,
      "num_longs": 0,
      "num_floats": 0,
      "bytecode_length": 100,
      "variables_length": 0
    },
    "variables": "AAAAAA==",
    "bytecode": "ZAAAAAYBBAkgWNwQID09IDAGAQIeIFjNECBkEk1HX2dnX25jaGFBbGNoUGVybSAhPSA12xAkAQkBBwEEBgECHiBYzRAgZBJNR19nZ19uY2hhQWxjaFBlcm0gPT0gNdoQJAEJAQkBAQE=",
    "text": "Begin gg_ncha_alchAshGreChest\r\n\r\nif ( GetDisabled == 0 )\r\n\tif ( GetJournalIndex MG_gg_nchaAlchPerm != 5 )\r\n\t\tdisable\r\n\t\treturn\r\n\tendif\r\nelse\r\n\tif ( GetJournalIndex MG_gg_nchaAlchPerm == 5 )\r\n\t\tenable\r\n\t\treturn\r\n\tendif\r\nendif\r\n\r\nEnd\r\n\r\n\r\n"
  },
  {
    "type": "Script",
    "flags": "",
    "id": "gg_ncha_alchAshSwaChest",
    "header": {
      "num_shorts": 0,
      "num_longs": 0,
      "num_floats": 0,
      "bytecode_length": 100,
      "variables_length": 0
    },
    "variables": "AAAAAA==",
    "bytecode": "ZAAAAAYBBAkgWNwQID09IDAGAQIeIFjNECBkEk1HX2dnX25jaGFBbGNoUGVybSAhPSA22xAkAQkBBwEEBgECHiBYzRAgZBJNR19nZ19uY2hhQWxjaFBlcm0gPT0gNtoQJAEJAQkBAQE=",
    "text": "Begin gg_ncha_alchAshSwaChest\r\n\r\nif ( GetDisabled == 0 )\r\n\tif ( GetJournalIndex MG_gg_nchaAlchPerm != 6 )\r\n\t\tdisable\r\n\t\treturn\r\n\tendif\r\nelse\r\n\tif ( GetJournalIndex MG_gg_nchaAlchPerm == 6 )\r\n\t\tenable\r\n\t\treturn\r\n\tendif\r\nendif\r\n\r\nEnd\r\n\r\n\r\n\r\n"
  },
  {
    "type": "Script",
    "flags": "",
    "id": "gg_ncha_alchAshTunChest",
    "header": {
      "num_shorts": 0,
      "num_longs": 0,
      "num_floats": 0,
      "bytecode_length": 100,
      "variables_length": 0
    },
    "variables": "AAAAAA==",
    "bytecode": "ZAAAAAYBBAkgWNwQID09IDAGAQIeIFjNECBkEk1HX2dnX25jaGFBbGNoUGVybSAhPSA32xAkAQkBBwEEBgECHiBYzRAgZBJNR19nZ19uY2hhQWxjaFBlcm0gPT0gN9oQJAEJAQkBAQE=",
    "text": "Begin gg_ncha_alchAshTunChest\r\n\r\nif ( GetDisabled == 0 )\r\n\tif ( GetJournalIndex MG_gg_nchaAlchPerm != 7 )\r\n\t\tdisable\r\n\t\treturn\r\n\tendif\r\nelse\r\n\tif ( GetJournalIndex MG_gg_nchaAlchPerm == 7 )\r\n\t\tenable\r\n\t\treturn\r\n\tendif\r\nendif\r\n\r\nEnd\r\n\r\n\r\n\r\n"
  },
  {
    "type": "Script",
    "flags": "",
    "id": "gg_ncha_alchGreSwaChest",
    "header": {
      "num_shorts": 0,
      "num_longs": 0,
      "num_floats": 0,
      "bytecode_length": 100,
      "variables_length": 0
    },
    "variables": "AAAAAA==",
    "bytecode": "ZAAAAAYBBAkgWNwQID09IDAGAQIeIFjNECBkEk1HX2dnX25jaGFBbGNoUGVybSAhPSA42xAkAQkBBwEEBgECHiBYzRAgZBJNR19nZ19uY2hhQWxjaFBlcm0gPT0gONoQJAEJAQkBAQE=",
    "text": "Begin gg_ncha_alchGreSwaChest\r\n\r\nif ( GetDisabled == 0 )\r\n\tif ( GetJournalIndex MG_gg_nchaAlchPerm != 8 )\r\n\t\tdisable\r\n\t\treturn\r\n\tendif\r\nelse\r\n\tif ( GetJournalIndex MG_gg_nchaAlchPerm == 8 )\r\n\t\tenable\r\n\t\treturn\r\n\tendif\r\nendif\r\n\r\nEnd\r\n\r\n\r\n\r\n"
  },
  {
    "type": "Script",
    "flags": "",
    "id": "gg_ncha_alchGreTunChest",
    "header": {
      "num_shorts": 0,
      "num_longs": 0,
      "num_floats": 0,
      "bytecode_length": 100,
      "variables_length": 0
    },
    "variables": "AAAAAA==",
    "bytecode": "ZAAAAAYBBAkgWNwQID09IDAGAQIeIFjNECBkEk1HX2dnX25jaGFBbGNoUGVybSAhPSA52xAkAQkBBwEEBgECHiBYzRAgZBJNR19nZ19uY2hhQWxjaFBlcm0gPT0gOdoQJAEJAQkBAQE=",
    "text": "Begin gg_ncha_alchGreTunChest\r\n\r\nif ( GetDisabled == 0 )\r\n\tif ( GetJournalIndex MG_gg_nchaAlchPerm != 9 )\r\n\t\tdisable\r\n\t\treturn\r\n\tendif\r\nelse\r\n\tif ( GetJournalIndex MG_gg_nchaAlchPerm == 9 )\r\n\t\tenable\r\n\t\treturn\r\n\tendif\r\nendif\r\n\r\nEnd\r\n\r\n\r\n\r\n\r\n"
  },
  {
    "type": "Script",
    "flags": "",
    "id": "gg_ncha_alchSwaTunChest",
    "header": {
      "num_shorts": 0,
      "num_longs": 0,
      "num_floats": 0,
      "bytecode_length": 102,
      "variables_length": 0
    },
    "variables": "AAAAAA==",
    "bytecode": "ZgAAAAYBBAkgWNwQID09IDAGAQIfIFjNECBkEk1HX2dnX25jaGFBbGNoUGVybSAhPSAxMNsQJAEJAQcBBAYBAh8gWM0QIGQSTUdfZ2dfbmNoYUFsY2hQZXJtID09IDEw2hAkAQkBCQEBAQ==",
    "text": "Begin gg_ncha_alchSwaTunChest\r\n\r\nif ( GetDisabled == 0 )\r\n\tif ( GetJournalIndex MG_gg_nchaAlchPerm != 10 )\r\n\t\tdisable\r\n\t\treturn\r\n\tendif\r\nelse\r\n\tif ( GetJournalIndex MG_gg_nchaAlchPerm == 10 )\r\n\t\tenable\r\n\t\treturn\r\n\tendif\r\nendif\r\n\r\nEnd\r\n\r\n\r\n\r\n\r\n"
  },
  {
    "type": "Script",
    "flags": "",
    "id": "gg_ncha_enchConst",
    "header": {
      "num_shorts": 0,
      "num_longs": 0,
      "num_floats": 0,
      "bytecode_length": 108,
      "variables_length": 0
    },
    "variables": "AAAAAA==",
    "bytecode": "bAAAAAYBBAkgWNwQID09IDAGAQIiIFjNECBkFE1HX2dnX25jaGFfZW5jaGFudGVyICE9IDEwMNsQJAEJAQcBBAYBAiIgWM0QIGQUTUdfZ2dfbmNoYV9lbmNoYW50ZXIgPT0gMTAw2hAkAQkBCQEBAQ==",
    "text": "Begin gg_ncha_enchConst\r\n\r\nif ( GetDisabled == 0 )\r\n\tif ( GetJournalIndex MG_gg_ncha_enchanter != 100 )\r\n\t\tdisable\r\n\t\treturn\r\n\tendif\r\nelse\r\n\tif ( GetJournalIndex MG_gg_ncha_enchanter == 100 )\r\n\t\tenable\r\n\t\treturn\r\n\tendif\r\nendif\r\n\r\nEnd"
  },
  {
    "type": "Script",
    "flags": "",
    "id": "gg_ncha_enchOnUse",
    "header": {
      "num_shorts": 0,
      "num_longs": 0,
      "num_floats": 0,
      "bytecode_length": 108,
      "variables_length": 0
    },
    "variables": "AAAAAA==",
    "bytecode": "bAAAAAYBBAkgWNwQID09IDAGAQIiIFjNECBkFE1HX2dnX25jaGFfZW5jaGFudGVyICE9IDIwMNsQJAEJAQcBBAYBAiIgWM0QIGQUTUdfZ2dfbmNoYV9lbmNoYW50ZXIgPT0gMjAw2hAkAQkBCQEBAQ==",
    "text": "Begin gg_ncha_enchOnUse\r\n\r\nif ( GetDisabled == 0 )\r\n\tif ( GetJournalIndex MG_gg_ncha_enchanter != 200 )\r\n\t\tdisable\r\n\t\treturn\r\n\tendif\r\nelse\r\n\tif ( GetJournalIndex MG_gg_ncha_enchanter == 200 )\r\n\t\tenable\r\n\t\treturn\r\n\tendif\r\nendif\r\n\r\nEnd\r\n\r\n\r\n"
  },
  {
    "type": "Script",
    "flags": "",
    "id": "gg_ncha_enchScroll",
    "header": {
      "num_shorts": 0,
      "num_longs": 0,
      "num_floats": 0,
      "bytecode_length": 108,
      "variables_length": 0
    },
    "variables": "AAAAAA==",
    "bytecode": "bAAAAAYBBAkgWNwQID09IDAGAQIiIFjNECBkFE1HX2dnX25jaGFfZW5jaGFudGVyICE9IDMwMNsQJAEJAQcBBAYBAiIgWM0QIGQUTUdfZ2dfbmNoYV9lbmNoYW50ZXIgPT0gMzAw2hAkAQkBCQEBAQ==",
    "text": "Begin gg_ncha_enchScroll\r\n\r\nif ( GetDisabled == 0 )\r\n\tif ( GetJournalIndex MG_gg_ncha_enchanter != 300 )\r\n\t\tdisable\r\n\t\treturn\r\n\tendif\r\nelse\r\n\tif ( GetJournalIndex MG_gg_ncha_enchanter == 300 )\r\n\t\tenable\r\n\t\treturn\r\n\tendif\r\nendif\r\n\r\nEnd\r\n\r\n\r\n"
  },
  {
    "type": "Script",
    "flags": "",
    "id": "gg_ncha_mainFloorRubbleScript",
    "header": {
      "num_shorts": 0,
      "num_longs": 0,
      "num_floats": 0,
      "bytecode_length": 100,
      "variables_length": 0
    },
    "variables": "AAAAAA==",
    "bytecode": "ZAAAAAYBBAkgWNwQID09IDAGAQIeIFjNECBkEE1HX2dnX25jaGFfTG93ZXIgPT0gMTAw2xAkAQkBBwEEBgECHiBYzRAgZBBNR19nZ19uY2hhX0xvd2VyICE9IDEwMNoQJAEJAQkBAQE=",
    "text": "Begin gg_ncha_mainFloorRubbleScript\r\n\r\nif ( GetDisabled == 0 )\r\n\tif ( GetJournalIndex MG_gg_ncha_Lower == 100 )\r\n\t\tdisable\r\n\t\treturn\r\n\tendif\r\nelse\r\n\tif ( GetJournalIndex MG_gg_ncha_Lower != 100 )\r\n\t\tenable\r\n\t\treturn\r\n\tendif\r\nendif\r\n\r\nEnd"
  },
  {
    "type": "Script",
    "flags": "",
    "id": "gg_ncha_shaftRubbleScript",
    "header": {
      "num_shorts": 0,
      "num_longs": 0,
      "num_floats": 0,
      "bytecode_length": 100,
      "variables_length": 0
    },
    "variables": "AAAAAA==",
    "bytecode": "ZAAAAAYBBAkgWNwQID09IDAGAQIeIFjNECBkEE1HX2dnX25jaGFfU2hhZnQgPT0gMTAw2xAkAQkBBwEEBgECHiBYzRAgZBBNR19nZ19uY2hhX1NoYWZ0ICE9IDEwMNoQJAEJAQkBAQE=",
    "text": "Begin gg_ncha_shaftRubbleScript\r\n\r\nif ( GetDisabled == 0 )\r\n\tif ( GetJournalIndex MG_gg_ncha_Shaft == 100 )\r\n\t\tdisable\r\n\t\treturn\r\n\tendif\r\nelse\r\n\tif ( GetJournalIndex MG_gg_ncha_Shaft != 100 )\r\n\t\tenable\r\n\t\treturn\r\n\tendif\r\nendif\r\n\r\nEnd"
  },
  {
    "type": "Script",
    "flags": "",
    "id": "gg_ncha_upperFloorRubbleScript",
    "header": {
      "num_shorts": 0,
      "num_longs": 0,
      "num_floats": 0,
      "bytecode_length": 100,
      "variables_length": 0
    },
    "variables": "AAAAAA==",
    "bytecode": "ZAAAAAYBBAkgWNwQID09IDAGAQIeIFjNECBkEE1HX2dnX25jaGFfVXBwZXIgPT0gMTAw2xAkAQkBBwEEBgECHiBYzRAgZBBNR19nZ19uY2hhX1VwcGVyICE9IDEwMNoQJAEJAQkBAQE=",
    "text": "Begin gg_ncha_upperFloorRubbleScript\r\n\r\nif ( GetDisabled == 0 )\r\n\tif ( GetJournalIndex MG_gg_ncha_Upper == 100 )\r\n\t\tdisable\r\n\t\treturn\r\n\tendif\r\nelse\r\n\tif ( GetJournalIndex MG_gg_ncha_Upper != 100 )\r\n\t\tenable\r\n\t\treturn\r\n\tendif\r\nendif\r\n\r\nEnd"
  },
  {
    "type": "Dialogue",
    "flags": "",
    "id": "clear the upper floor",
    "dialogue_type": "Topic"
  },
  {
    "type": "DialogueInfo",
    "flags": "",
    "id": "228064572359919431",
    "prev_id": "141552346520932212",
    "next_id": "288092548738030509",
    "data": {
      "dialogue_type": "Topic",
      "disposition": 0,
      "speaker_rank": -1,
      "speaker_sex": "Any",
      "player_rank": -1
    },
    "speaker_id": "gg_mncha_steward",
    "speaker_race": "",
    "speaker_class": "",
    "speaker_faction": "",
    "speaker_cell": "",
    "player_faction": "",
    "sound_path": "",
    "text": "Suit yourself. Please let me know if you change your mind.",
    "filters": [
      {
        "slot": "Slot0",
        "filter_type": "Function",
        "function": "Choice",
        "comparison": "Equal",
        "id": "",
        "value": {
          "type": "Integer",
          "data": 4
        }
      }
    ],
    "script_text": ""
  },
  {
    "type": "Dialogue",
    "flags": "",
    "id": "clear the main floor",
    "dialogue_type": "Topic"
  },
  {
    "type": "DialogueInfo",
    "flags": "",
    "id": "2222015181669719959",
    "prev_id": "15695318842852615848",
    "next_id": "2506319130222631742",
    "data": {
      "dialogue_type": "Topic",
      "disposition": 0,
      "speaker_rank": -1,
      "speaker_sex": "Any",
      "player_rank": -1
    },
    "speaker_id": "gg_mncha_steward",
    "speaker_race": "",
    "speaker_class": "",
    "speaker_faction": "",
    "speaker_cell": "",
    "player_faction": "",
    "sound_path": "",
    "text": "Suit yourself. Please let me know if you change your mind.",
    "filters": [
      {
        "slot": "Slot0",
        "filter_type": "Function",
        "function": "Choice",
        "comparison": "Equal",
        "id": "",
        "value": {
          "type": "Integer",
          "data": 2
        }
      }
    ],
    "script_text": ""
  },
  {
    "type": "Dialogue",
    "flags": "",
    "id": "clear the shaft",
    "dialogue_type": "Topic"
  },
  {
    "type": "DialogueInfo",
    "flags": "",
    "id": "11056305021825022509",
    "prev_id": "383422383234199391",
    "next_id": "580722623311485756",
    "data": {
      "dialogue_type": "Topic",
      "disposition": 0,
      "speaker_rank": -1,
      "speaker_sex": "Any",
      "player_rank": -1
    },
    "speaker_id": "gg_mncha_steward",
    "speaker_race": "",
    "speaker_class": "",
    "speaker_faction": "",
    "speaker_cell": "",
    "player_faction": "",
    "sound_path": "",
    "text": "Suit yourself. Please let me know if you change your mind.",
    "filters": [
      {
        "slot": "Slot0",
        "filter_type": "Journal",
        "function": "JournalType",
        "comparison": "Equal",
        "id": "MG_gg_ncha_Shaft",
        "value": {
          "type": "Integer",
          "data": 10
        }
      },
      {
        "slot": "Slot1",
        "filter_type": "Function",
        "function": "Choice",
        "comparison": "Equal",
        "id": "",
        "value": {
          "type": "Integer",
          "data": 6
        }
      }
    ],
    "script_text": ""
  }
]