[
  {
    "type": "Header",
    "flags": "",
    "version": 1.3,
    "file_type": "Esp",
    "author": "",
    "description": "",
    "num_objects": 49,
    "masters": [
      [
        "Morrowind.esm",
        79837557
      ],
      [
        "Tribunal.esm",
        4565686
      ],
      [
        "Bloodmoon.esm",
        9631798
      ],
      [
        "Tamriel_Data.esm",
        11610744
      ],
      [
        "OAAB_Data.esm",
        1597716
      ]
    ]
  },
  {
    "type": "Dialogue",
    "flags": "",
    "id": "Hello",
    "dialogue_type": "Voice"
  },
  {
    "type": "DialogueInfo",
    "flags": "",
    "id": "654302831354627671",
    "prev_id": "508922188282675775",
    "next_id": "255320079238736719",
    "data": {
      "dialogue_type": "Voice",
      "disposition": 0,
      "speaker_rank": 1,
      "speaker_sex": "Female",
      "player_rank": -1
    },
    "speaker_id": "",
    "speaker_race": "",
    "speaker_class": "",
    "speaker_faction": "CAVD_AundaeCovenVerver",
    "speaker_cell": "",
    "player_faction": "",
    "sound_path": "Vo\\VDQuest\\VampF1.mp3",
    "text": "What do you want, New Blood?",
    "filters": [
      {
        "slot": "Slot0",
        "filter_type": "Function",
        "function": "PcVampire",
        "comparison": "Equal",
        "id": "",
        "value": {
          "type": "Integer",
          "data": 1
        }
      },
      {
        "slot": "Slot1",
        "filter_type": "Global",
        "function": "VariableCompare",
        "comparison": "Less",
        "id": "Random100",
        "value": {
          "type": "Integer",
          "data": 35
        }
      }
    ],
    "script_text": ""
  },
  {
    "type": "DialogueInfo",
    "flags": "",
    "id": "255320079238736719",
    "prev_id": "654302831354627671",
    "next_id": "935624548554731191",
    "data": {
      "dialogue_type": "Voice",
      "disposition": 0,
      "speaker_rank": 1,
      "speaker_sex": "Female",
      "player_rank": -1
    },
    "speaker_id": "",
    "speaker_race": "",
    "speaker_class": "",
    "speaker_faction": "QCVL_QuarraOutcastsEU",
    "speaker_cell": "",
    "player_faction": "",
    "sound_path": "Vo\\VDQuest\\VampF1.mp3",
    "text": "What do you want, New Blood?",
    "filters": [
      {
        "slot": "Slot0",
        "filter_type": "Function",
        "function": "PcVampire",
        "comparison": "Equal",
        "id": "",
        "value": {
          "type": "Integer",
          "data": 1
        }
      },
      {
        "slot": "Slot1",
        "filter_type": "Global",
        "function": "VariableCompare",
        "comparison": "Less",
        "id": "Random100",
        "value": {
          "type": "Integer",
          "data": 35
        }
      }
    ],
    "script_text": ""
  },
  {
    "type": "DialogueInfo",
    "flags": "",
    "id": "935624548554731191",
    "prev_id": "255320079238736719",
    "next_id": "224093232999333703",
    "data": {
      "dialogue_type": "Voice",
      "disposition": 0,
      "speaker_rank": 1,
      "speaker_sex": "Female",
      "player_rank": -1
    },
    "speaker_id": "",
    "speaker_race": "",
    "speaker_class": "",
    "speaker_faction": "CAVD_AundaeCovenTharen",
    "speaker_cell": "",
    "player_faction": "",
    "sound_path": "Vo\\VDQuest\\VampF1.mp3",
    "text": "What do you want, New Blood?",
    "filters": [
      {
        "slot": "Slot0",
        "filter_type": "Function",
        "function": "PcVampire",
        "comparison": "Equal",
        "id": "",
        "value": {
          "type": "Integer",
          "data": 1
        }
      },
      {
        "slot": "Slot1",
        "filter_type": "Global",
        "function": "VariableCompare",
        "comparison": "Less",
        "id": "Random100",
        "value": {
          "type": "Integer",
          "data": 35
        }
      }
    ],
    "script_text": ""
  },
  {
    "type": "DialogueInfo",
    "flags": "",
    "id": "224093232999333703",
    "prev_id": "935624548554731191",
    "next_id": "2676013078223185463",
    "data": {
      "dialogue_type": "Voice",
      "disposition": 0,
      "speaker_rank": 1,
      "speaker_sex": "Female",
      "player_rank": -1
    },
    "speaker_id": "",
    "speaker_race": "",
    "speaker_class": "",
    "speaker_faction": "CAVD_AundaeCovenSelaro",
    "speaker_cell": "",
    "player_faction": "",
    "sound_path": "Vo\\VDQuest\\VampF1.mp3",
    "text": "What do you want, New Blood?",
    "filters": [
      {
        "slot": "Slot0",
        "filter_type": "Function",
        "function": "PcVampire",
        "comparison": "Equal",
        "id": "",
        "value": {
          "type": "Integer",
          "data": 1
        }
      },
      {
        "slot": "Slot1",
        "filter_type": "Global",
        "function": "VariableCompare",
        "comparison": "Less",
        "id": "Random100",
        "value": {
          "type": "Integer",
          "data": 35
        }
      }
    ],
    "script_text": ""
  },
  {
    "type": "DialogueInfo",
    "flags": "",
    "id": "2676013078223185463",
    "prev_id": "224093232999333703",
    "next_id": "1102823144234325092",
    "data": {
      "dialogue_type": "Voice",
      "disposition": 0,
      "speaker_rank": 1,
      "speaker_sex": "Female",
      "player_rank": -1
    },
    "speaker_id": "",
    "speaker_race": "",
    "speaker_class": "",
    "speaker_faction": "CAVD_AundaeCovenDarethi",
    "speaker_cell": "",
    "player_faction": "",
    "sound_path": "Vo\\VDQuest\\VampF1.mp3",
    "text": "What do you want, New Blood?",
    "filters": [
      {
        "slot": "Slot0",
        "filter_type": "Function",
        "function": "PcVampire",
        "comparison": "Equal",
        "id": "",
        "value": {
          "type": "Integer",
          "data": 1
        }
      },
      {
        "slot": "Slot1",
        "filter_type": "Global",
        "function": "VariableCompare",
        "comparison": "Less",
        "id": "Random100",
        "value": {
          "type": "Integer",
          "data": 35
        }
      }
    ],
    "script_text": ""
  },
  {
    "type": "DialogueInfo",
    "flags": "",
    "id": "1102823144234325092",
    "prev_id": "2676013078223185463",
    "next_id": "306981270165031358",
    "data": {
      "dialogue_type": "Voice",
      "disposition": 0,
      "speaker_rank": 1,
      "speaker_sex": "Female",
      "player_rank": -1
    },
    "speaker_id": "",
    "speaker_race": "",
    "speaker_class": "",
    "speaker_faction": "CAVD_AundaeCovenAndus",
    "speaker_cell": "",
    "player_faction": "",
    "sound_path": "Vo\\VDQuest\\VampF1.mp3",
    "text": "What do you want, New Blood?",
    "filters": [
      {
        "slot": "Slot0",
        "filter_type": "Function",
        "function": "PcVampire",
        "comparison": "Equal",
        "id": "",
        "value": {
          "type": "Integer",
          "data": 1
        }
      },
      {
        "slot": "Slot1",
        "filter_type": "Global",
        "function": "VariableCompare",
        "comparison": "Less",
        "id": "Random100",
        "value": {
          "type": "Integer",
          "data": 35
        }
      }
    ],
    "script_text": ""
  },
  {
    "type": "DialogueInfo",
    "flags": "",
    "id": "306981270165031358",
    "prev_id": "1102823144234325092",
    "next_id": "15747151241870514263",
    "data": {
      "dialogue_type": "Voice",
      "disposition": 0,
      "speaker_rank": 1,
      "speaker_sex": "Female",
      "player_rank": -1
    },
    "speaker_id": "",
    "speaker_race": "",
    "speaker_class": "",
    "speaker_faction": "QCVL_QuarraOutcastsEU",
    "speaker_cell": "",
    "player_faction": "",
    "sound_path": "Vo\\VDQuest\\VampF2.mp3",
    "text": "You try my patience, accident.",
    "filters": [
      {
        "slot": "Slot0",
        "filter_type": "Function",
        "function": "PcVampire",
        "comparison": "Equal",
        "id": "",
        "value": {
          "type": "Integer",
          "data": 1
        }
      },
      {
        "slot": "Slot1",
        "filter_type": "Global",
        "function": "VariableCompare",
        "comparison": "Less",
        "id": "Random100",
        "value": {
          "type": "Integer",
          "data": 65
        }
      }
    ],
    "script_text": ""
  },
  {
    "type": "DialogueInfo",
    "flags": "",
    "id": "15747151241870514263",
    "prev_id": "306981270165031358",
    "next_id": "2444993891070717782",
    "data": {
      "dialogue_type": "Voice",
      "disposition": 0,
      "speaker_rank": 1,
      "speaker_sex": "Female",
      "player_rank": -1
    },
    "speaker_id": "",
    "speaker_race": "",
    "speaker_class": "",
    "speaker_faction": "CAVD_AundaeCovenVerver",
    "speaker_cell": "",
    "player_faction": "",
    "sound_path": "Vo\\VDQuest\\VampF2.mp3",
    "text": "You try my patience, accident.",
    "filters": [
      {
        "slot": "Slot0",
        "filter_type": "Function",
        "function": "PcVampire",
        "comparison": "Equal",
        "id": "",
        "value": {
          "type": "Integer",
          "data": 1
        }
      },
      {
        "slot": "Slot1",
        "filter_type": "Global",
        "function": "VariableCompare",
        "comparison": "Less",
        "id": "Random100",
        "value": {
          "type": "Integer",
          "data": 65
        }
      }
    ],
    "script_text": ""
  },
  {
    "type": "DialogueInfo",
    "flags": "",
    "id": "2444993891070717782",
    "prev_id": "15747151241870514263",
    "next_id": "4734171701509323062",
    "data": {
      "dialogue_type": "Voice",
      "disposition": 0,
      "speaker_rank": 1,
      "speaker_sex": "Female",
      "player_rank": -1
    },
    "speaker_id": "",
    "speaker_race": "",
    "speaker_class": "",
    "speaker_faction": "CAVD_AundaeCovenTharen",
    "speaker_cell": "",
    "player_faction": "",
    "sound_path": "Vo\\VDQuest\\VampF2.mp3",
    "text": "You try my patience, accident.",
    "filters": [
      {
        "slot": "Slot0",
        "filter_type": "Function",
        "function": "PcVampire",
        "comparison": "Equal",
        "id": "",
        "value": {
          "type": "Integer",
          "data": 1
        }
      },
      {
        "slot": "Slot1",
        "filter_type": "Global",
        "function": "VariableCompare",
        "comparison": "Less",
        "id": "Random100",
        "value": {
          "type": "Integer",
          "data": 65
        }
      }
    ],
    "script_text": ""
  },
  {
    "type": "DialogueInfo",
    "flags": "",
    "id": "4734171701509323062",
    "prev_id": "2444993891070717782",
    "next_id": "9085306872747724822",
    "data": {
      "dialogue_type": "Voice",
      "disposition": 0,
      "speaker_rank": 1,
      "speaker_sex": "Female",
      "player_rank": -1
    },
    "speaker_id": "",
    "speaker_race": "",
    "speaker_class": "",
    "speaker_faction": "CAVD_AundaeCovenSelaro",
    "speaker_cell": "",
    "player_faction": "",
    "sound_path": "Vo\\VDQuest\\VampF2.mp3",
    "text": "You try my patience, accident.",
    "filters": [
      {
        "slot": "Slot0",
        "filter_type": "Function",
        "function": "PcVampire",
        "comparison": "Equal",
        "id": "",
        "value": {
          "type": "Integer",
          "data": 1
        }
      },
      {
        "slot": "Slot1",
        "filter_type": "Global",
        "function": "VariableCompare",
        "comparison": "Less",
        "id": "Random100",
        "value": {
          "type": "Integer",
          "data": 65
        }
      }
    ],
    "script_text": ""
  },
  {
    "type": "DialogueInfo",
    "flags": "",
    "id": "9085306872747724822",
    "prev_id": "4734171701509323062",
    "next_id": "1197129634369919718",
    "data": {
      "dialogue_type": "Voice",
      "disposition": 0,
      "speaker_rank": 1,
      "speaker_sex": "Female",
      "player_rank": -1
    },
    "speaker_id": "",
    "speaker_race": "",
    "speaker_class": "",
    "speaker_faction": "CAVD_AundaeCovenDarethi",
    "speaker_cell": "",
    "player_faction": "",
    "sound_path": "Vo\\VDQuest\\VampF2.mp3",
    "text": "You try my patience, accident.",
    "filters": [
      {
        "slot": "Slot0",
        "filter_type": "Function",
        "function": "PcVampire",
        "comparison": "Equal",
        "id": "",
        "value": {
          "type": "Integer",
          "data": 1
        }
      },
      {
        "slot": "Slot1",
        "filter_type": "Global",
        "function": "VariableCompare",
        "comparison": "Less",
        "id": "Random100",
        "value": {
          "type": "Integer",
          "data": 65
        }
      }
    ],
    "script_text": ""
  },
  {
    "type": "DialogueInfo",
    "flags": "",
    "id": "1197129634369919718",
    "prev_id": "9085306872747724822",
    "next_id": "432132771380914429",
    "data": {
      "dialogue_type": "Voice",
      "disposition": 0,
      "speaker_rank": 1,
      "speaker_sex": "Female",
      "player_rank": -1
    },
    "speaker_id": "",
    "speaker_race": "",
    "speaker_class": "",
    "speaker_faction": "CAVD_AundaeCovenAndus",
    "speaker_cell": "",
    "player_faction": "",
    "sound_path": "Vo\\VDQuest\\VampF2.mp3",
    "text": "You try my patience, accident.",
    "filters": [
      {
        "slot": "Slot0",
        "filter_type": "Function",
        "function": "PcVampire",
        "comparison": "Equal",
        "id": "",
        "value": {
          "type": "Integer",
          "data": 1
        }
      },
      {
        "slot": "Slot1",
        "filter_type": "Global",
        "function": "VariableCompare",
        "comparison": "Less",
        "id": "Random100",
        "value": {
          "type": "Integer",
          "data": 65
        }
      }
    ],
    "script_text": ""
  },
  {
    "type": "DialogueInfo",
    "flags": "",
    "id": "432132771380914429",
    "prev_id": "1197129634369919718",
    "next_id": "26489192171148031862",
    "data": {
      "dialogue_type": "Voice",
      "disposition": 0,
      "speaker_rank": 1,
      "speaker_sex": "Female",
      "player_rank": -1
    },
    "speaker_id": "",
    "speaker_race": "",
    "speaker_class": "",
    "speaker_faction": "QCVL_QuarraOutcastsEU",
    "speaker_cell": "",
    "player_faction": "",
    "sound_path": "Vo\\VDQuest\\VampF4.mp3",
    "text": "What is it, Fresh Blood?",
    "filters": [
      {
        "slot": "Slot0",
        "filter_type": "Function",
        "function": "PcVampire",
        "comparison": "Equal",
        "id": "",
        "value": {
          "type": "Integer",
          "data": 1
        }
      }
    ],
    "script_text": ""
  },
  {
    "type": "DialogueInfo",
    "flags": "",
    "id": "26489192171148031862",
    "prev_id": "432132771380914429",
    "next_id": "24231348234822614",
    "data": {
      "dialogue_type": "Voice",
      "disposition": 0,
      "speaker_rank": 1,
      "speaker_sex": "Female",
      "player_rank": -1
    },
    "speaker_id": "",
    "speaker_race": "",
    "speaker_class": "",
    "speaker_faction": "CAVD_AundaeCovenVerver",
    "speaker_cell": "",
    "player_faction": "",
    "sound_path": "Vo\\VDQuest\\VampF4.mp3",
    "text": "What is it, Fresh Blood?",
    "filters": [
      {
        "slot": "Slot0",
        "filter_type": "Function",
        "function": "PcVampire",
        "comparison": "Equal",
        "id": "",
        "value": {
          "type": "Integer",
          "data": 1
        }
      }
    ],
    "script_text": ""
  },
  {
    "type": "DialogueInfo",
    "flags": "",
    "id": "24231348234822614",
    "prev_id": "26489192171148031862",
    "next_id": "154762126378687894",
    "data": {
      "dialogue_type": "Voice",
      "disposition": 0,
      "speaker_rank": 1,
      "speaker_sex": "Female",
      "player_rank": -1
    },
    "speaker_id": "",
    "speaker_race": "",
    "speaker_class": "",
    "speaker_faction": "CAVD_AundaeCovenTharen",
    "speaker_cell": "",
    "player_faction": "",
    "sound_path": "Vo\\VDQuest\\VampF4.mp3",
    "text": "What is it, Fresh Blood?",
    "filters": [
      {
        "slot": "Slot0",
        "filter_type": "Function",
        "function": "PcVampire",
        "comparison": "Equal",
        "id": "",
        "value": {
          "type": "Integer",
          "data": 1
        }
      }
    ],
    "script_text": ""
  },
  {
    "type": "DialogueInfo",
    "flags": "",
    "id": "154762126378687894",
    "prev_id": "24231348234822614",
    "next_id": "24178155283263711413",
    "data": {
      "dialogue_type": "Voice",
      "disposition": 0,
      "speaker_rank": 1,
      "speaker_sex": "Female",
      "player_rank": -1
    },
    "speaker_id": "",
    "speaker_race": "",
    "speaker_class": "",
    "speaker_faction": "CAVD_AundaeCovenSelaro",
    "speaker_cell": "",
    "player_faction": "",
    "sound_path": "Vo\\VDQuest\\VampF4.mp3",
    "text": "What is it, Fresh Blood?",
    "filters": [
      {
        "slot": "Slot0",
        "filter_type": "Function",
        "function": "PcVampire",
        "comparison": "Equal",
        "id": "",
        "value": {
          "type": "Integer",
          "data": 1
        }
      }
    ],
    "script_text": ""
  },
  {
    "type": "DialogueInfo",
    "flags": "",
    "id": "24178155283263711413",
    "prev_id": "154762126378687894",
    "next_id": "12243234951453726087",
    "data": {
      "dialogue_type": "Voice",
      "disposition": 0,
      "speaker_rank": 1,
      "speaker_sex": "Female",
      "player_rank": -1
    },
    "speaker_id": "",
    "speaker_race": "",
    "speaker_class": "",
    "speaker_faction": "CAVD_AundaeCovenDarethi",
    "speaker_cell": "",
    "player_faction": "",
    "sound_path": "Vo\\VDQuest\\VampF4.mp3",
    "text": "What is it, Fresh Blood?",
    "filters": [
      {
        "slot": "Slot0",
        "filter_type": "Function",
        "function": "PcVampire",
        "comparison": "Equal",
        "id": "",
        "value": {
          "type": "Integer",
          "data": 1
        }
      }
    ],
    "script_text": ""
  },
  {
    "type": "DialogueInfo",
    "flags": "",
    "id": "12243234951453726087",
    "prev_id": "24178155283263711413",
    "next_id": "237651635313532780",
    "data": {
      "dialogue_type": "Voice",
      "disposition": 0,
      "speaker_rank": 1,
      "speaker_sex": "Female",
      "player_rank": -1
    },
    "speaker_id": "",
    "speaker_race": "",
    "speaker_class": "",
    "speaker_faction": "CAVD_AundaeCovenAndus",
    "speaker_cell": "",
    "player_faction": "",
    "sound_path": "Vo\\VDQuest\\VampF4.mp3",
    "text": "What is it, Fresh Blood?",
    "filters": [
      {
        "slot": "Slot0",
        "filter_type": "Function",
        "function": "PcVampire",
        "comparison": "Equal",
        "id": "",
        "value": {
          "type": "Integer",
          "data": 1
        }
      }
    ],
    "script_text": ""
  },
  {
    "type": "DialogueInfo",
    "flags": "",
    "id": "237651635313532780",
    "prev_id": "12243234951453726087",
    "next_id": "1751531091864121973",
    "data": {
      "dialogue_type": "Voice",
      "disposition": 0,
      "speaker_rank": 1,
      "speaker_sex": "Male",
      "player_rank": -1
    },
    "speaker_id": "",
    "speaker_race": "",
    "speaker_class": "",
    "speaker_faction": "QCVL_QuarraOutcastsEU",
    "speaker_cell": "",
    "player_faction": "",
    "sound_path": "Vo\\VDQuest\\VampM1.mp3",
    "text": "What is it, you runt?",
    "filters": [
      {
        "slot": "Slot0",
        "filter_type": "Function",
        "function": "PcVampire",
        "comparison": "Equal",
        "id": "",
        "value": {
          "type": "Integer",
          "data": 1
        }
      },
      {
        "slot": "Slot1",
        "filter_type": "Global",
        "function": "VariableCompare",
        "comparison": "Less",
        "id": "Random100",
        "value": {
          "type": "Integer",
          "data": 20
        }
      }
    ],
    "script_text": ""
  },
  {
    "type": "DialogueInfo",
    "flags": "",
    "id": "1751531091864121973",
    "prev_id": "237651635313532780",
    "next_id": "1520427402297981524",
    "data": {
      "dialogue_type": "Voice",
      "disposition": 0,
      "speaker_rank": 1,
      "speaker_sex": "Male",
      "player_rank": -1
    },
    "speaker_id": "",
    "speaker_race": "",
    "speaker_class": "",
    "speaker_faction": "CAVD_AundaeCovenVerver",
    "speaker_cell": "",
    "player_faction": "",
    "sound_path": "Vo\\VDQuest\\VampM1.mp3",
    "text": "What is it, you runt?",
    "filters": [
      {
        "slot": "Slot0",
        "filter_type": "Function",
        "function": "PcVampire",
        "comparison": "Equal",
        "id": "",
        "value": {
          "type": "Integer",
          "data": 1
        }
      },
      {
        "slot": "Slot1",
        "filter_type": "Global",
        "function": "VariableCompare",
        "comparison": "Less",
        "id": "Random100",
        "value": {
          "type": "Integer",
          "data": 20
        }
      }
    ],
    "script_text": ""
  },
  {
    "type": "DialogueInfo",
    "flags": "",
    "id": "1520427402297981524",
    "prev_id": "1751531091864121973",
    "next_id": "19555815094153284",
    "data": {
      "dialogue_type": "Voice",
      "disposition": 0,
      "speaker_rank": 1,
      "speaker_sex": "Male",
      "player_rank": -1
    },
    "speaker_id": "",
    "speaker_race": "",
    "speaker_class": "",
    "speaker_faction": "CAVD_AundaeCovenTharen",
    "speaker_cell": "",
    "player_faction": "",
    "sound_path": "Vo\\VDQuest\\VampM1.mp3",
    "text": "What is it, you runt?",
    "filters": [
      {
        "slot": "Slot0",
        "filter_type": "Function",
        "function": "PcVampire",
        "comparison": "Equal",
        "id": "",
        "value": {
          "type": "Integer",
          "data": 1
        }
      },
      {
        "slot": "Slot1",
        "filter_type": "Global",
        "function": "VariableCompare",
        "comparison": "Less",
        "id": "Random100",
        "value": {
          "type": "Integer",
          "data": 20
        }
      }
    ],
    "script_text": ""
  },
  {
    "type": "DialogueInfo",
    "flags": "",
    "id": "19555815094153284",
    "prev_id": "1520427402297981524",
    "next_id": "12893237131818713844",
    "data": {
      "dialogue_type": "Voice",
      "disposition": 0,
      "speaker_rank": 1,
      "speaker_sex": "Male",
      "player_rank": -1
    },
    "speaker_id": "",
    "speaker_race": "",
    "speaker_class": "",
    "speaker_faction": "CAVD_AundaeCovenSelaro",
    "speaker_cell": "",
    "player_faction": "",
    "sound_path": "Vo\\VDQuest\\VampM1.mp3",
    "text": "What is it, you runt?",
    "filters": [
      {
        "slot": "Slot0",
        "filter_type": "Function",
        "function": "PcVampire",
        "comparison": "Equal",
        "id": "",
        "value": {
          "type": "Integer",
          "data": 1
        }
      },
      {
        "slot": "Slot1",
        "filter_type": "Global",
        "function": "VariableCompare",
        "comparison": "Less",
        "id": "Random100",
        "value": {
          "type": "Integer",
          "data": 20
        }
      }
    ],
    "script_text": ""
  },
  {
    "type": "DialogueInfo",
    "flags": "",
    "id": "12893237131818713844",
    "prev_id": "19555815094153284",
    "next_id": "189057932576415527",
    "data": {
      "dialogue_type": "Voice",
      "disposition": 0,
      "speaker_rank": 1,
      "speaker_sex": "Male",
      "player_rank": -1
    },
    "speaker_id": "",
    "speaker_race": "",
    "speaker_class": "",
    "speaker_faction": "CAVD_AundaeCovenDarethi",
    "speaker_cell": "",
    "player_faction": "",
    "sound_path": "Vo\\VDQuest\\VampM1.mp3",
    "text": "What is it, you runt?",
    "filters": [
      {
        "slot": "Slot0",
        "filter_type": "Function",
        "function": "PcVampire",
        "comparison": "Equal",
        "id": "",
        "value": {
          "type": "Integer",
          "data": 1
        }
      },
      {
        "slot": "Slot1",
        "filter_type": "Global",
        "function": "VariableCompare",
        "comparison": "Less",
        "id": "Random100",
        "value": {
          "type": "Integer",
          "data": 20
        }
      }
    ],
    "script_text": ""
  },
  {
    "type": "DialogueInfo",
    "flags": "",
    "id": "189057932576415527",
    "prev_id": "12893237131818713844",
    "next_id": "21454307141974215100",
    "data": {
      "dialogue_type": "Voice",
      "disposition": 0,
      "speaker_rank": 1,
      "speaker_sex": "Male",
      "player_rank": -1
    },
    "speaker_id": "",
    "speaker_race": "",
    "speaker_class": "",
    "speaker_faction": "CAVD_AundaeCovenAndus",
    "speaker_cell": "",
    "player_faction": "",
    "sound_path": "Vo\\VDQuest\\VampM1.mp3",
    "text": "What is it, you runt?",
    "filters": [
      {
        "slot": "Slot0",
        "filter_type": "Function",
        "function": "PcVampire",
        "comparison": "Equal",
        "id": "",
        "value": {
          "type": "Integer",
          "data": 1
        }
      },
      {
        "slot": "Slot1",
        "filter_type": "Global",
        "function": "VariableCompare",
        "comparison": "Less",
        "id": "Random100",
        "value": {
          "type": "Integer",
          "data": 20
        }
      }
    ],
    "script_text": ""
  },
  {
    "type": "DialogueInfo",
    "flags": "",
    "id": "21454307141974215100",
    "prev_id": "189057932576415527",
    "next_id": "1880257591457522644",
    "data": {
      "dialogue_type": "Voice",
      "disposition": 0,
      "speaker_rank": 1,
      "speaker_sex": "Male",
      "player_rank": -1
    },
    "speaker_id": "",
    "speaker_race": "",
    "speaker_class": "",
    "speaker_faction": "QCVL_QuarraOutcastsEU",
    "speaker_cell": "",
    "player_faction": "",
    "sound_path": "Vo\\VDQuest\\VampM2.mp3",
    "text": "You try my patience, accident.",
    "filters": [
      {
        "slot": "Slot0",
        "filter_type": "Function",
        "function": "PcVampire",
        "comparison": "Equal",
        "id": "",
        "value": {
          "type": "Integer",
          "data": 1
        }
      },
      {
        "slot": "Slot1",
        "filter_type": "Global",
        "function": "VariableCompare",
        "comparison": "Less",
        "id": "Random100",
        "value": {
          "type": "Integer",
          "data": 40
        }
      }
    ],
    "script_text": ""
  },
  {
    "type": "DialogueInfo",
    "flags": "",
    "id": "1880257591457522644",
    "prev_id": "21454307141974215100",
    "next_id": "149337731896127923",
    "data": {
      "dialogue_type": "Voice",
      "disposition": 0,
      "speaker_rank": 1,
      "speaker_sex": "Male",
      "player_rank": -1
    },
    "speaker_id": "",
    "speaker_race": "",
    "speaker_class": "",
    "speaker_faction": "CAVD_AundaeCovenVerver",
    "speaker_cell": "",
    "player_faction": "",
    "sound_path": "Vo\\VDQuest\\VampM2.mp3",
    "text": "You try my patience, accident.",
    "filters": [
      {
        "slot": "Slot0",
        "filter_type": "Function",
        "function": "PcVampire",
        "comparison": "Equal",
        "id": "",
        "value": {
          "type": "Integer",
          "data": 1
        }
      },
      {
        "slot": "Slot1",
        "filter_type": "Global",
        "function": "VariableCompare",
        "comparison": "Less",
        "id": "Random100",
        "value": {
          "type": "Integer",
          "data": 40
        }
      }
    ],
    "script_text": ""
  },
  {
    "type": "DialogueInfo",
    "flags": "",
    "id": "149337731896127923",
    "prev_id": "1880257591457522644",
    "next_id": "27986855423347435",
    "data": {
      "dialogue_type": "Voice",
      "disposition": 0,
      "speaker_rank": 1,
      "speaker_sex": "Male",
      "player_rank": -1
    },
    "speaker_id": "",
    "speaker_race": "",
    "speaker_class": "",
    "speaker_faction": "CAVD_AundaeCovenTharen",
    "speaker_cell": "",
    "player_faction": "",
    "sound_path": "Vo\\VDQuest\\VampM2.mp3",
    "text": "You try my patience, accident.",
    "filters": [
      {
        "slot": "Slot0",
        "filter_type": "Function",
        "function": "PcVampire",
        "comparison": "Equal",
        "id": "",
        "value": {
          "type": "Integer",
          "data": 1
        }
      },
      {
        "slot": "Slot1",
        "filter_type": "Global",
        "function": "VariableCompare",
        "comparison": "Less",
        "id": "Random100",
        "value": {
          "type": "Integer",
          "data": 40
        }
      }
    ],
    "script_text": ""
  },
  {
    "type": "DialogueInfo",
    "flags": "",
    "id": "27986855423347435",
    "prev_id": "149337731896127923",
    "next_id": "323372207129632195",
    "data": {
      "dialogue_type": "Voice",
      "disposition": 0,
      "speaker_rank": 1,
      "speaker_sex": "Male",
      "player_rank": -1
    },
    "speaker_id": "",
    "speaker_race": "",
    "speaker_class": "",
    "speaker_faction": "CAVD_AundaeCovenSelaro",
    "speaker_cell": "",
    "player_faction": "",
    "sound_path": "Vo\\VDQuest\\VampM2.mp3",
    "text": "You try my patience, accident.",
    "filters": [
      {
        "slot": "Slot0",
        "filter_type": "Function",
        "function": "PcVampire",
        "comparison": "Equal",
        "id": "",
        "value": {
          "type": "Integer",
          "data": 1
        }
      },
      {
        "slot": "Slot1",
        "filter_type": "Global",
        "function": "VariableCompare",
        "comparison": "Less",
        "id": "Random100",
        "value": {
          "type": "Integer",
          "data": 40
        }
      }
    ],
    "script_text": ""
  },
  {
    "type": "DialogueInfo",
    "flags": "",
    "id": "323372207129632195",
    "prev_id": "27986855423347435",
    "next_id": "1128821879243454716",
    "data": {
      "dialogue_type": "Voice",
      "disposition": 0,
      "speaker_rank": 1,
      "speaker_sex": "Male",
      "player_rank": -1
    },
    "speaker_id": "",
    "speaker_race": "",
    "speaker_class": "",
    "speaker_faction": "CAVD_AundaeCovenDarethi",
    "speaker_cell": "",
    "player_faction": "",
    "sound_path": "Vo\\VDQuest\\VampM2.mp3",
    "text": "You try my patience, accident.",
    "filters": [
      {
        "slot": "Slot0",
        "filter_type": "Function",
        "function": "PcVampire",
        "comparison": "Equal",
        "id": "",
        "value": {
          "type": "Integer",
          "data": 1
        }
      },
      {
        "slot": "Slot1",
        "filter_type": "Global",
        "function": "VariableCompare",
        "comparison": "Less",
        "id": "Random100",
        "value": {
          "type": "Integer",
          "data": 40
        }
      }
    ],
    "script_text": ""
  },
  {
    "type": "DialogueInfo",
    "flags": "",
    "id": "1128821879243454716",
    "prev_id": "323372207129632195",
    "next_id": "124819820169035211",
    "data": {
      "dialogue_type": "Voice",
      "disposition": 0,
      "speaker_rank": 1,
      "speaker_sex": "Male",
      "player_rank": -1
    },
    "speaker_id": "",
    "speaker_race": "",
    "speaker_class": "",
    "speaker_faction": "CAVD_AundaeCovenAndus",
    "speaker_cell": "",
    "player_faction": "",
    "sound_path": "Vo\\VDQuest\\VampM2.mp3",
    "text": "You try my patience, accident.",
    "filters": [
      {
        "slot": "Slot0",
        "filter_type": "Function",
        "function": "PcVampire",
        "comparison": "Equal",
        "id": "",
        "value": {
          "type": "Integer",
          "data": 1
        }
      },
      {
        "slot": "Slot1",
        "filter_type": "Global",
        "function": "VariableCompare",
        "comparison": "Less",
        "id": "Random100",
        "value": {
          "type": "Integer",
          "data": 40
        }
      }
    ],
    "script_text": ""
  },
  {
    "type": "DialogueInfo",
    "flags": "",
    "id": "124819820169035211",
    "prev_id": "1128821879243454716",
    "next_id": "2567548651173612755",
    "data": {
      "dialogue_type": "Voice",
      "disposition": 0,
      "speaker_rank": 1,
      "speaker_sex": "Male",
      "player_rank": -1
    },
    "speaker_id": "",
    "speaker_race": "",
    "speaker_class": "",
    "speaker_faction": "QCVL_QuarraOutcastsEU",
    "speaker_cell": "",
    "player_faction": "",
    "sound_path": "Vo\\VDQuest\\VampM3.mp3",
    "text": "Yes little monster - what do you want?",
    "filters": [
      {
        "slot": "Slot0",
        "filter_type": "Function",
        "function": "PcVampire",
        "comparison": "Equal",
        "id": "",
        "value": {
          "type": "Integer",
          "data": 1
        }
      },
      {
        "slot": "Slot1",
        "filter_type": "Global",
        "function": "VariableCompare",
        "comparison": "Less",
        "id": "Random100",
        "value": {
          "type": "Integer",
          "data": 60
        }
      }
    ],
    "script_text": ""
  },
  {
    "type": "DialogueInfo",
    "flags": "",
    "id": "2567548651173612755",
    "prev_id": "124819820169035211",
    "next_id": "5960126471612218035",
    "data": {
      "dialogue_type": "Voice",
      "disposition": 0,
      "speaker_rank": 1,
      "speaker_sex": "Male",
      "player_rank": -1
    },
    "speaker_id": "",
    "speaker_race": "",
    "speaker_class": "",
    "speaker_faction": "CAVD_AundaeCovenVerver",
    "speaker_cell": "",
    "player_faction": "",
    "sound_path": "Vo\\VDQuest\\VampM3.mp3",
    "text": "Yes little monster - what do you want?",
    "filters": [
      {
        "slot": "Slot0",
        "filter_type": "Function",
        "function": "PcVampire",
        "comparison": "Equal",
        "id": "",
        "value": {
          "type": "Integer",
          "data": 1
        }
      },
      {
        "slot": "Slot1",
        "filter_type": "Global",
        "function": "VariableCompare",
        "comparison": "Less",
        "id": "Random100",
        "value": {
          "type": "Integer",
          "data": 60
        }
      }
    ],
    "script_text": ""
  },
  {
    "type": "DialogueInfo",
    "flags": "",
    "id": "5960126471612218035",
    "prev_id": "2567548651173612755",
    "next_id": "23364117712425074",
    "data": {
      "dialogue_type": "Voice",
      "disposition": 0,
      "speaker_rank": 1,
      "speaker_sex": "Male",
      "player_rank": -1
    },
    "speaker_id": "",
    "speaker_race": "",
    "speaker_class": "",
    "speaker_faction": "CAVD_AundaeCovenTharen",
    "speaker_cell": "",
    "player_faction": "",
    "sound_path": "Vo\\VDQuest\\VampM3.mp3",
    "text": "Yes little monster - what do you want?",
    "filters": [
      {
        "slot": "Slot0",
        "filter_type": "Function",
        "function": "PcVampire",
        "comparison": "Equal",
        "id": "",
        "value": {
          "type": "Integer",
          "data": 1
        }
      },
      {
        "slot": "Slot1",
        "filter_type": "Global",
        "function": "VariableCompare",
        "comparison": "Less",
        "id": "Random100",
        "value": {
          "type": "Integer",
          "data": 60
        }
      }
    ],
    "script_text": ""
  },
  {
    "type": "DialogueInfo",
    "flags": "",
    "id": "23364117712425074",
    "prev_id": "5960126471612218035",
    "next_id": "27715146931250926834",
    "data": {
      "dialogue_type": "Voice",
      "disposition": 0,
      "speaker_rank": 1,
      "speaker_sex": "Male",
      "player_rank": -1
    },
    "speaker_id": "",
    "speaker_race": "",
    "speaker_class": "",
    "speaker_faction": "CAVD_AundaeCovenSelaro",
    "speaker_cell": "",
    "player_faction": "",
    "sound_path": "Vo\\VDQuest\\VampM3.mp3",
    "text": "Yes little monster - what do you want?",
    "filters": [
      {
        "slot": "Slot0",
        "filter_type": "Function",
        "function": "PcVampire",
        "comparison": "Equal",
        "id": "",
        "value": {
          "type": "Integer",
          "data": 1
        }
      },
      {
        "slot": "Slot1",
        "filter_type": "Global",
        "function": "VariableCompare",
        "comparison": "Less",
        "id": "Random100",
        "value": {
          "type": "Integer",
          "data": 60
        }
      }
    ],
    "script_text": ""
  },
  {
    "type": "DialogueInfo",
    "flags": "",
    "id": "27715146931250926834",
    "prev_id": "23364117712425074",
    "next_id": "15910292571479912845",
    "data": {
      "dialogue_type": "Voice",
      "disposition": 0,
      "speaker_rank": 1,
      "speaker_sex": "Male",
      "player_rank": -1
    },
    "speaker_id": "",
    "speaker_race": "",
    "speaker_class": "",
    "speaker_faction": "CAVD_AundaeCovenDarethi",
    "speaker_cell": "",
    "player_faction": "",
    "sound_path": "Vo\\VDQuest\\VampM3.mp3",
    "text": "Yes little monster - what do you want?",
    "filters": [
      {
        "slot": "Slot0",
        "filter_type": "Function",
        "function": "PcVampire",
        "comparison": "Equal",
        "id": "",
        "value": {
          "type": "Integer",
          "data": 1
        }
      },
      {
        "slot": "Slot1",
        "filter_type": "Global",
        "function": "VariableCompare",
        "comparison": "Less",
        "id": "Random100",
        "value": {
          "type": "Integer",
          "data": 60
        }
      }
    ],
    "script_text": ""
  },
  {
    "type": "DialogueInfo",
    "flags": "",
    "id": "15910292571479912845",
    "prev_id": "27715146931250926834",
    "next_id": "785924432644929850",
    "data": {
      "dialogue_type": "Voice",
      "disposition": 0,
      "speaker_rank": 1,
      "speaker_sex": "Male",
      "player_rank": -1
    },
    "speaker_id": "",
    "speaker_race": "",
    "speaker_class": "",
    "speaker_faction": "CAVD_AundaeCovenAndus",
    "speaker_cell": "",
    "player_faction": "",
    "sound_path": "Vo\\VDQuest\\VampM3.mp3",
    "text": "Yes little monster - what do you want?",
    "filters": [
      {
        "slot": "Slot0",
        "filter_type": "Function",
        "function": "PcVampire",
        "comparison": "Equal",
        "id": "",
        "value": {
          "type": "Integer",
          "data": 1
        }
      },
      {
        "slot": "Slot1",
        "filter_type": "Global",
        "function": "VariableCompare",
        "comparison": "Less",
        "id": "Random100",
        "value": {
          "type": "Integer",
          "data": 60
        }
      }
    ],
    "script_text": ""
  },
  {
    "type": "DialogueInfo",
    "flags": "",
    "id": "785924432644929850",
    "prev_id": "15910292571479912845",
    "next_id": "568918786528411665",
    "data": {
      "dialogue_type": "Voice",
      "disposition": 0,
      "speaker_rank": 1,
      "speaker_sex": "Male",
      "player_rank": -1
    },
    "speaker_id": "",
    "speaker_race": "",
    "speaker_class": "",
    "speaker_faction": "QCVL_QuarraOutcastsEU",
    "speaker_cell": "",
    "player_faction": "",
    "sound_path": "Vo\\VDQuest\\VampM4.mp3",
    "text": "Speak quickly, yearling.",
    "filters": [
      {
        "slot": "Slot0",
        "filter_type": "Function",
        "function": "PcVampire",
        "comparison": "Equal",
        "id": "",
        "value": {
          "type": "Integer",
          "data": 1
        }
      },
      {
        "slot": "Slot1",
        "filter_type": "Global",
        "function": "VariableCompare",
        "comparison": "Less",
        "id": "Random100",
        "value": {
          "type": "Integer",
          "data": 80
        }
      }
    ],
    "script_text": ""
  },
  {
    "type": "DialogueInfo",
    "flags": "",
    "id": "568918786528411665",
    "prev_id": "785924432644929850",
    "next_id": "1874226567967016945",
    "data": {
      "dialogue_type": "Voice",
      "disposition": 0,
      "speaker_rank": 1,
      "speaker_sex": "Male",
      "player_rank": -1
    },
    "speaker_id": "",
    "speaker_race": "",
    "speaker_class": "",
    "speaker_faction": "CAVD_AundaeCovenVerver",
    "speaker_cell": "",
    "player_faction": "",
    "sound_path": "Vo\\VDQuest\\VampM4.mp3",
    "text": "Speak quickly, yearling.",
    "filters": [
      {
        "slot": "Slot0",
        "filter_type": "Function",
        "function": "PcVampire",
        "comparison": "Equal",
        "id": "",
        "value": {
          "type": "Integer",
          "data": 1
        }
      },
      {
        "slot": "Slot1",
        "filter_type": "Global",
        "function": "VariableCompare",
        "comparison": "Less",
        "id": "Random100",
        "value": {
          "type": "Integer",
          "data": 80
        }
      }
    ],
    "script_text": ""
  },
  {
    "type": "DialogueInfo",
    "flags": "",
    "id": "1874226567967016945",
    "prev_id": "568918786528411665",
    "next_id": "2744420832167220465",
    "data": {
      "dialogue_type": "Voice",
      "disposition": 0,
      "speaker_rank": 1,
      "speaker_sex": "Male",
      "player_rank": -1
    },
    "speaker_id": "",
    "speaker_race": "",
    "speaker_class": "",
    "speaker_faction": "CAVD_AundaeCovenTharen",
    "speaker_cell": "",
    "player_faction": "",
    "sound_path": "Vo\\VDQuest\\VampM4.mp3",
    "text": "Speak quickly, yearling.",
    "filters": [
      {
        "slot": "Slot0",
        "filter_type": "Function",
        "function": "PcVampire",
        "comparison": "Equal",
        "id": "",
        "value": {
          "type": "Integer",
          "data": 1
        }
      },
      {
        "slot": "Slot1",
        "filter_type": "Global",
        "function": "VariableCompare",
        "comparison": "Less",
        "id": "Random100",
        "value": {
          "type": "Integer",
          "data": 80
        }
      }
    ],
    "script_text": ""
  },
  {
    "type": "DialogueInfo",
    "flags": "",
    "id": "2744420832167220465",
    "prev_id": "1874226567967016945",
    "next_id": "18470327063160110576",
    "data": {
      "dialogue_type": "Voice",
      "disposition": 0,
      "speaker_rank": 1,
      "speaker_sex": "Male",
      "player_rank": -1
    },
    "speaker_id": "",
    "speaker_race": "",
    "speaker_class": "",
    "speaker_faction": "CAVD_AundaeCovenSelaro",
    "speaker_cell": "",
    "player_faction": "",
    "sound_path": "Vo\\VDQuest\\VampM4.mp3",
    "text": "Speak quickly, yearling.",
    "filters": [
      {
        "slot": "Slot0",
        "filter_type": "Function",
        "function": "PcVampire",
        "comparison": "Equal",
        "id": "",
        "value": {
          "type": "Integer",
          "data": 1
        }
      },
      {
        "slot": "Slot1",
        "filter_type": "Global",
        "function": "VariableCompare",
        "comparison": "Less",
        "id": "Random100",
        "value": {
          "type": "Integer",
          "data": 80
        }
      }
    ],
    "script_text": ""
  },
  {
    "type": "DialogueInfo",
    "flags": "",
    "id": "18470327063160110576",
    "prev_id": "2744420832167220465",
    "next_id": "1645316979370725583",
    "data": {
      "dialogue_type": "Voice",
      "disposition": 0,
      "speaker_rank": 1,
      "speaker_sex": "Male",
      "player_rank": -1
    },
    "speaker_id": "",
    "speaker_race": "",
    "speaker_class": "",
    "speaker_faction": "CAVD_AundaeCovenDarethi",
    "speaker_cell": "",
    "player_faction": "",
    "sound_path": "Vo\\VDQuest\\VampM4.mp3",
    "text": "Speak quickly, yearling.",
    "filters": [
      {
        "slot": "Slot0",
        "filter_type": "Function",
        "function": "PcVampire",
        "comparison": "Equal",
        "id": "",
        "value": {
          "type": "Integer",
          "data": 1
        }
      },
      {
        "slot": "Slot1",
        "filter_type": "Global",
        "function": "VariableCompare",
        "comparison": "Less",
        "id": "Random100",
        "value": {
          "type": "Integer",
          "data": 80
        }
      }
    ],
    "script_text": ""
  },
  {
    "type": "DialogueInfo",
    "flags": "",
    "id": "1645316979370725583",
    "prev_id": "18470327063160110576",
    "next_id": "20640163631999728761",
    "data": {
      "dialogue_type": "Voice",
      "disposition": 0,
      "speaker_rank": 1,
      "speaker_sex": "Male",
      "player_rank": -1
    },
    "speaker_id": "",
    "speaker_race": "",
    "speaker_class": "",
    "speaker_faction": "CAVD_AundaeCovenAndus",
    "speaker_cell": "",
    "player_faction": "",
    "sound_path": "Vo\\VDQuest\\VampM4.mp3",
    "text": "Speak quickly, yearling.",
    "filters": [
      {
        "slot": "Slot0",
        "filter_type": "Function",
        "function": "PcVampire",
        "comparison": "Equal",
        "id": "",
        "value": {
          "type": "Integer",
          "data": 1
        }
      },
      {
        "slot": "Slot1",
        "filter_type": "Global",
        "function": "VariableCompare",
        "comparison": "Less",
        "id": "Random100",
        "value": {
          "type": "Integer",
          "data": 80
        }
      }
    ],
    "script_text": ""
  },
  {
    "type": "DialogueInfo",
    "flags": "",
    "id": "20640163631999728761",
    "prev_id": "1645316979370725583",
    "next_id": "1180815501760521136",
    "data": {
      "dialogue_type": "Voice",
      "disposition": 0,
      "speaker_rank": 1,
      "speaker_sex": "Male",
      "player_rank": -1
    },
    "speaker_id": "",
    "speaker_race": "",
    "speaker_class": "",
    "speaker_faction": "QCVL_QuarraOutcastsEU",
    "speaker_cell": "",
    "player_faction": "",
    "sound_path": "Vo\\VDQuest\\VampM5.mp3",
    "text": "What do you want, New Blood?",
    "filters": [
      {
        "slot": "Slot0",
        "filter_type": "Function",
        "function": "PcVampire",
        "comparison": "Equal",
        "id": "",
        "value": {
          "type": "Integer",
          "data": 1
        }
      }
    ],
    "script_text": ""
  },
  {
    "type": "DialogueInfo",
    "flags": "",
    "id": "1180815501760521136",
    "prev_id": "20640163631999728761",
    "next_id": "2051097663237424656",
    "data": {
      "dialogue_type": "Voice",
      "disposition": 0,
      "speaker_rank": 1,
      "speaker_sex": "Male",
      "player_rank": -1
    },
    "speaker_id": "",
    "speaker_race": "",
    "speaker_class": "",
    "speaker_faction": "CAVD_AundaeCovenVerver",
    "speaker_cell": "",
    "player_faction": "",
    "sound_path": "Vo\\VDQuest\\VampM5.mp3",
    "text": "What do you want, New Blood?",
    "filters": [
      {
        "slot": "Slot0",
        "filter_type": "Function",
        "function": "PcVampire",
        "comparison": "Equal",
        "id": "",
        "value": {
          "type": "Integer",
          "data": 1
        }
      }
    ],
    "script_text": ""
  },
  {
    "type": "DialogueInfo",
    "flags": "",
    "id": "2051097663237424656",
    "prev_id": "1180815501760521136",
    "next_id": "94971181228762687",
    "data": {
      "dialogue_type": "Voice",
      "disposition": 0,
      "speaker_rank": 1,
      "speaker_sex": "Male",
      "player_rank": -1
    },
    "speaker_id": "",
    "speaker_race": "",
    "speaker_class": "",
    "speaker_faction": "CAVD_AundaeCovenTharen",
    "speaker_cell": "",
    "player_faction": "",
    "sound_path": "Vo\\VDQuest\\VampM5.mp3",
    "text": "What do you want, New Blood?",
    "filters": [
      {
        "slot": "Slot0",
        "filter_type": "Function",
        "function": "PcVampire",
        "comparison": "Equal",
        "id": "",
        "value": {
          "type": "Integer",
          "data": 1
        }
      }
    ],
    "script_text": ""
  },
  {
    "type": "DialogueInfo",
    "flags": "",
    "id": "94971181228762687",
    "prev_id": "2051097663237424656",
    "next_id": "19839117091967927019",
    "data": {
      "dialogue_type": "Voice",
      "disposition": 0,
      "speaker_rank": 1,
      "speaker_sex": "Male",
      "player_rank": -1
    },
    "speaker_id": "",
    "speaker_race": "",
    "speaker_class": "",
    "speaker_faction": "CAVD_AundaeCovenSelaro",
    "speaker_cell": "",
    "player_faction": "",
    "sound_path": "Vo\\VDQuest\\VampM5.mp3",
    "text": "What do you want, New Blood?",
    "filters": [
      {
        "slot": "Slot0",
        "filter_type": "Function",
        "function": "PcVampire",
        "comparison": "Equal",
        "id": "",
        "value": {
          "type": "Integer",
          "data": 1
        }
      }
    ],
    "script_text": ""
  },
  {
    "type": "DialogueInfo",
    "flags": "",
    "id": "19839117091967927019",
    "prev_id": "94971181228762687",
    "next_id": "8022165752254328432",
    "data": {
      "dialogue_type": "Voice",
      "disposition": 0,
      "speaker_rank": 1,
      "speaker_sex": "Male",
      "player_rank": -1
    },
    "speaker_id": "",
    "speaker_race": "",
    "speaker_class": "",
    "speaker_faction": "CAVD_AundaeCovenDarethi",
    "speaker_cell": "",
    "player_faction": "",
    "sound_path": "Vo\\VDQuest\\VampM5.mp3",
    "text": "What do you want, New Blood?",
    "filters": [
      {
        "slot": "Slot0",
        "filter_type": "Function",
        "function": "PcVampire",
        "comparison": "Equal",
        "id": "",
        "value": {
          "type": "Integer",
          "data": 1
        }
      }
    ],
    "script_text": ""
  },
  {
    "type": "DialogueInfo",
    "flags": "",
    "id": "8022165752254328432",
    "prev_id": "19839117091967927019",
    "next_id": "2998217512448721514",
    "data": {
      "dialogue_type": "Voice",
      "disposition": 0,
      "speaker_rank": 1,
      "speaker_sex": "Male",
      "player_rank": -1
    },
    "speaker_id": "",
    "speaker_race": "",
    "speaker_class": "",
    "speaker_faction": "CAVD_AundaeCovenAndus",
    "speaker_cell": "",
    "player_faction": "",
    "sound_path": "Vo\\VDQuest\\VampM5.mp3",
    "text": "What do you want, New Blood?",
    "filters": [
      {
        "slot": "Slot0",
        "filter_type": "Function",
        "function": "PcVampire",
        "comparison": "Equal",
        "id": "",
        "value": {
          "type": "Integer",
          "data": 1
        }
      }
    ],
    "script_text": ""
  }
]